Misleading Data Visualizations – Data science-ethics
…
Based on the misleading visualization, one could come to the conclusion that, the Kansas Covid-19 7 day rolling averages per/100k between the dates of 7/12/2020 through 8/03/2020 decreased to a lower value for masked counties than for counties that did not have the mask mandate

Fixing the graph

Now that we have identified how this graph is misleading, let’s create our own graph that fixes the issue! The first thing we need to do is think about the structure of our data. As seen above, our three column names are date, mask mandate, and no-mask mandate. How do the structure of these data need to change in order for us to plot these data?

Solution

The values of mask mandate and no-mask mandate need to be levels of a categorical variable that we can map to the visual element (lines) on our plot. In the following code below, we name this variable County.

kansas_covid |>
  pivot_longer(!date, names_to = "County" , values_to = "cases") 

# A tibble: 46 × 3
   date      County          cases
   <chr>     <chr>           <dbl>
 1 7/12/2020 mask mandate     25.2
 2 7/12/2020 no-mask mandate   9.8
 3 7/13/2020 mask mandate     19.7
 4 7/13/2020 no-mask mandate   9.2
 5 7/14/2020 mask mandate     19.7
 6 7/14/2020 no-mask mandate   9.4
 7 7/15/2020 mask mandate     20.4
 8 7/15/2020 no-mask mandate   9.8
 9 7/16/2020 mask mandate     19.7
10 7/16/2020 no-mask mandate   9.9
# ℹ 36 more rows
…
The dates on the x-axis are not in chronological order. This is extremely misleading, and a general audience is going to assume a correct chronological order to the dates from left to right. Further, the order of the counties within date are sorted from highest to lowest, making cross date comparison more difficult for each county. One strategy we can use in R is to manually set the dates in chronological order using the levels argument in the factor() function when manipulating the date variable in our data set using mutate().

georgia_covid |>
  filter(date >= "2020-04-26", date <= "2020-05-09") %>%
  mutate(
    date = format(date, "%d%b%Y"), 
    date = factor(date,
                  levels = c("26Apr2020", "27Apr2020", "28Apr2020", 
                             "29Apr2020", "30Apr2020", "01May2020", 
                             "02May2020", "03May2020", "04May2020",
                             "05May2020", "06May2020", "07May2020", 
                             "08May2020", "09May2020")))

# A tibble: 70 × 7
   date      county   state    fips cases deaths  case
   <fct>     <chr>    <chr>   <dbl> <dbl>  <dbl> <dbl>
 1 26Apr2020 Cobb     Georgia 13067  1428     75    33
 2 26Apr2020 DeKalb   Georgia 13089  1800     36    12
 3 26Apr2020 Fulton   Georgia 13121  2545     94     2
 4 26Apr2020 Gwinnett Georgia 13135  1504     47    44
 5 26Apr2020 Hall     Georgia 13139  1033     11     1
 6 27Apr2020 Cobb     Georgia 13067  1483     81    55
 7 27Apr2020 DeKalb   Georgia 13089  1855     42    55
 8 27Apr2020 Fulton   Georgia 13121  2680    103   135
 9 27Apr2020 Gwinnett Georgia 13135  1545     52    41
10 27Apr2020 Hall     Georgia 13139  1098     12    65
# ℹ 60 more rows
…
